…
``` r
genome_wide_FST_matrix
```

```
## # A tibble: 24 × 25
##    fst       D03     D06     D07     D08     D09 D11Rep3     D15     D20     D21
##    <chr>   <dbl>   <dbl>   <dbl>   <dbl>   <dbl>   <dbl>   <dbl>   <dbl>   <dbl>
##  1 D03   0       0.0179  0.00444 0.00683 0.0145  0.0151  0.0118  0.00881 0.0186 
##  2 D06   0.0179  0       0.00936 0.0163  0.0228  0.0212  0.0223  0.0124  0.0249 
##  3 D07   0.00444 0.00936 0       0.00123 0.00746 0.00529 0.00157 0.00107 0.00665
##  4 D08   0.00683 0.0163  0.00123 0       0.00444 0.00354 0.00589 0.00458 0.0145 
##  5 D09   0.0145  0.0228  0.00746 0.00444 0       0.00695 0.0135  0.0101  0.0199 
##  6 D11R… 0.0151  0.0212  0.00529 0.00354 0.00695 0       0.00904 0.00739 0.0173 
##  7 D15   0.0118  0.0223  0.00157 0.00589 0.0135  0.00904 0       0.0108  0.0127 
##  8 D20   0.00881 0.0124  0.00107 0.00458 0.0101  0.00739 0.0108  0       0.0118 
##  9 D21   0.0186  0.0249  0.00665 0.0145  0.0199  0.0173  0.0127  0.0118  0      
## 10 D22   0.0230  0.0294  0.0104  0.0176  0.0230  0.0203  0.0207  0.0126  0.0189 
## # ℹ 14 more rows
## # ℹ 15 more variables: D22 <dbl>, D23 <dbl>, D26 <dbl>, S2 <dbl>, S3 <dbl>,
## #   S4 <dbl>, S6 <dbl>, S7 <dbl>, S8 <dbl>, S11 <dbl>, S12 <dbl>, S13 <dbl>,
## #   S15 <dbl>, S16 <dbl>, S17 <dbl>
```
…
